^C:\USERS\NITRO - MX150\DESKTOP\SCHOOL RELATED\SCHOOL\TERM 4 19-20\GDSTRUC [SIR DALE]\EXERCISE 3\GDSTRUCT TG001 EXERCISE 3\GDSTRUCT TG001 EXERCISE 3\SOURCE.CPP
C:\USERS\NITRO - MX150\DESKTOP\SCHOOL RELATED\SCHOOL\TERM 4 19-20\GDSTRUC [SIR DALE]\EXERCISE 3\GDSTRUCT TG001 EXERCISE 3\GDSTRUCT TG001 EXERCISE 3\DEBUG\VC141.PDB
C:\USERS\NITRO - MX150\DESKTOP\SCHOOL RELATED\SCHOOL\TERM 4 19-20\GDSTRUC [SIR DALE]\EXERCISE 3\GDSTRUCT TG001 EXERCISE 3\GDSTRUCT TG001 EXERCISE 3\DEBUG\VC141.IDB
C:\USERS\NITRO - MX150\DESKTOP\SCHOOL RELATED\SCHOOL\TERM 4 19-20\GDSTRUC [SIR DALE]\EXERCISE 3\GDSTRUCT TG001 EXERCISE 3\GDSTRUCT TG001 EXERCISE 3\DEBUG\SOURCE.OBJ
