^C:\USERS\NITRO - MX150\DESKTOP\SCHOOL RELATED\SCHOOL\TERM 4 19-20\GDSTRUC [SIR DALE]\MIDTERMS\GDSTRUC MIDTERMS\GDSTRUC MIDTERMS\DEBUG\SOURCE.OBJ
D:\WINDOWS KITS\10\LIB\10.0.17763.0\UM\X86\KERNEL32.LIB
D:\WINDOWS KITS\10\LIB\10.0.17763.0\UM\X86\USER32.LIB
D:\WINDOWS KITS\10\LIB\10.0.17763.0\UM\X86\GDI32.LIB
D:\WINDOWS KITS\10\LIB\10.0.17763.0\UM\X86\WINSPOOL.LIB
D:\WINDOWS KITS\10\LIB\10.0.17763.0\UM\X86\COMDLG32.LIB
D:\WINDOWS KITS\10\LIB\10.0.17763.0\UM\X86\ADVAPI32.LIB
D:\WINDOWS KITS\10\LIB\10.0.17763.0\UM\X86\SHELL32.LIB
D:\WINDOWS KITS\10\LIB\10.0.17763.0\UM\X86\OLE32.LIB
D:\WINDOWS KITS\10\LIB\10.0.17763.0\UM\X86\OLEAUT32.LIB
D:\WINDOWS KITS\10\LIB\10.0.17763.0\UM\X86\UUID.LIB
D:\WINDOWS KITS\10\LIB\10.0.17763.0\UM\X86\ODBC32.LIB
D:\WINDOWS KITS\10\LIB\10.0.17763.0\UM\X86\ODBCCP32.LIB
C:\USERS\NITRO - MX150\DESKTOP\SCHOOL RELATED\SCHOOL\TERM 4 19-20\GDSTRUC [SIR DALE]\MIDTERMS\GDSTRUC MIDTERMS\GDSTRUC MIDTERMS\DEBUG\SOURCE.OBJ
C:\WINDOWS\SYSTEM32\TZRES.DLL
C:\WINDOWS\GLOBALIZATION\SORTING\SORTDEFAULT.NLS
D:\VISUAL BASIC\VC\TOOLS\MSVC\14.16.27023\LIB\X86\MSVCPRTD.LIB
D:\VISUAL BASIC\VC\TOOLS\MSVC\14.16.27023\LIB\X86\MSVCRTD.LIB
D:\VISUAL BASIC\VC\TOOLS\MSVC\14.16.27023\LIB\X86\OLDNAMES.LIB
D:\VISUAL BASIC\VC\TOOLS\MSVC\14.16.27023\LIB\X86\VCRUNTIMED.LIB
D:\WINDOWS KITS\10\LIB\10.0.17763.0\UCRT\X86\UCRTD.LIB
D:\VISUAL BASIC\VC\TOOLS\MSVC\14.16.27023\BIN\HOSTX86\X86\VCTIP.EXE
